\relax 
\providecommand\hyper@newdestlabel[2]{}
\catcode `"\active 
\catcode `<\active 
\catcode `>\active 
\@nameuse{es@quoting}
\AC@reset@newl@bel
\providecommand\HyperFirstAtBeginDocument{\AtBeginDocument}
\HyperFirstAtBeginDocument{\ifx\hyper@anchor\@undefined
\global\let\oldcontentsline\contentsline
\gdef\contentsline#1#2#3#4{\oldcontentsline{#1}{#2}{#3}}
\global\let\oldnewlabel\newlabel
\gdef\newlabel#1#2{\newlabelxx{#1}#2}
\gdef\newlabelxx#1#2#3#4#5#6{\oldnewlabel{#1}{{#2}{#3}}}
\AtEndDocument{\ifx\hyper@anchor\@undefined
\let\contentsline\oldcontentsline
\let\newlabel\oldnewlabel
\fi}
\fi}
\global\let\hyper@last\relax 
\gdef\HyperFirstAtBeginDocument#1{#1}
\providecommand\HyField@AuxAddToFields[1]{}
\providecommand\HyField@AuxAddToCoFields[2]{}
\bibstyle{plain}
\select@language{spanish}
\@writefile{toc}{\select@language{spanish}}
\@writefile{lof}{\select@language{spanish}}
\@writefile{lot}{\select@language{spanish}}
\@writefile{toc}{\contentsline {chapter}{Resumen}{\es@scroman  {xiii}}{chapter*.1}}
\@writefile{lof}{\addvspace {10\p@ }}
\@writefile{lot}{\addvspace {10\p@ }}
\@writefile{toc}{\contentsline {chapter}{\'{I}ndice general}{\es@scroman  {xv}}{chapter*.2}}
\AC@undonewlabel{acro:MMO}
\newlabel{acro:MMO}{{}{\es@scroman  {xvi}}{\contentsname }{section*.3}{}}
\acronymused{MMO}
\@writefile{toc}{\contentsline {chapter}{\'{I}ndice de cuadros}{\es@scroman  {xix}}{chapter*.4}}
\citation{libro_blanco}
\citation{libro_blanco}
\@writefile{toc}{\contentsline {chapter}{\'{I}ndice de figuras}{\es@scroman  {xxi}}{chapter*.5}}
\AC@undonewlabel{acro:GIMP}
\newlabel{acro:GIMP}{{}{\es@scroman  {xxi}}{\listfigurename }{section*.6}{}}
\acronymused{GIMP}
\citation{android_api}
\AC@undonewlabel{acro:API}
\newlabel{acro:API}{{}{\es@scroman  {xxii}}{\listfigurename }{section*.7}{}}
\acronymused{API}
\citation{ogre_android}
\@writefile{toc}{\contentsline {chapter}{\IeC {\'I}ndice de listados}{\es@scroman  {xxv}}{chapter*.8}}
\@writefile{toc}{\contentsline {chapter}{Listado de acr\IeC {\'o}nimos}{\es@scroman  {xxvii}}{chapter*.9}}
\@writefile{lof}{\addvspace {10\p@ }}
\@writefile{lot}{\addvspace {10\p@ }}
\newacro{GNU}[\AC@hyperlink{GNU}{GNU}]{\acs {GNU} is Not Unix}
\newacro{OO}[\AC@hyperlink{OO}{OO}]{Orientaci\IeC {\'o}n a Objetos}
\newacro{RPC}[\AC@hyperlink{RPC}{RPC}]{Remote Procedure Call}
\newacro{BSP}[\AC@hyperlink{BSP}{BSP}]{Binary Space Partition}
\newacro{GPL}[\AC@hyperlink{GPL}{GPL}]{GNU Public Lincense}
\newacro{FPS}[\AC@hyperlink{FPS}{FPS}]{First Person Shooter}
\newacro{IA}[\AC@hyperlink{IA}{IA}]{Inteligencia Artificial}
\newacro{RTS}[\AC@hyperlink{RTS}{RTS}]{Real Time Strategy}
\newacro{TBS}[\AC@hyperlink{TBS}{TBS}]{Turn Based Strategy}
\newacro{MMO}[\AC@hyperlink{MMO}{MMO}]{Massively Multiplayer Online}
\newacro{MMORPG}[\AC@hyperlink{MMORPG}{MMORPG}]{Massively Multiplayer Online Roleplaying Game}
\newacro{PFC}[\AC@hyperlink{PFC}{PFC}]{Proyecto de Fin de Carrera}
\newacro{SDK}[\AC@hyperlink{SDK}{SDK}]{Software Development Kit}
\newacro{NDK}[\AC@hyperlink{NDK}{NDK}]{Native Development Kit}
\newacro{APK}[\AC@hyperlink{APK}{APK}]{Android Application Package}
\newacro{HUD}[\AC@hyperlink{HUD}{HUD}]{Heads-up Display}
\newacro{FSF}[\AC@hyperlink{FSF}{FSF}]{Free Sofware Fundation}
\newacro{API}[\AC@hyperlink{API}{API}]{Application Program Interface}
\newacro{GCC}[\AC@hyperlink{GCC}{GCC}]{GNU Compiler Collection}
\newacro{GIMP}[\AC@hyperlink{GIMP}{GIMP}]{GNU Image Manipulation Program}
\newacro{SDL}[\AC@hyperlink{SDL}{SDL}]{Simple DirectMedia Layer}
\newacro{STL}[\AC@hyperlink{STL}{STL}]{Standar Template Library}
\newacro{CEGUI}[\AC@hyperlink{CEGUI}{CEGUI}]{Crazy Eddie's GUI}
\newacro{GUI}[\AC@hyperlink{GUI}{GUI}]{Graphical User Interface}
\newacro{GPU}[\AC@hyperlink{GPU}{GPU}]{Graphic Processing Unit}
\newacro{CPU}[\AC@hyperlink{CPU}{CPU}]{Central Processing Unit}
\newacro{HID}[\AC@hyperlink{HID}{HID}]{Human Interface Devices}
\newacro{JNI}[\AC@hyperlink{JNI}{JNI}]{Java Native Interface}
\newacro{CPM}[\AC@hyperlink{CPM}{CPM}]{Costo por mil}
\newacro{FAQ}[\AC@hyperlink{FAQ}{FAQ}]{Frequently Asked Questions}
\newacro{ADB}[\AC@hyperlink{ADB}{ADB}]{Android Debug Bridge}
\newacro{SD}[\AC@hyperlink{SD}{SD}]{Secure Digital}
\newacro{CMAKE}[\AC@hyperlink{CMAKE}{CMAKE}]{Cross Plaform Make}
\citation{libro_blanco}
\citation{libro_blanco}
\@writefile{toc}{\contentsline {chapter}{\numberline {1}Introducci\IeC {\'o}n}{1}{chapter.1}}
\@writefile{lof}{\addvspace {10\p@ }}
\@writefile{lot}{\addvspace {10\p@ }}
\@writefile{lof}{\contentsline {figure}{\numberline {1.1}{\ignorespaces Distribuci\IeC {\'o}n del mercado actual por dispositivos \cite  {libro_blanco}}}{1}{figure.1.1}}
\newlabel{img:dispositivosActuales}{{1.1}{1}{Distribución del mercado actual por dispositivos \cite {libro_blanco}}{figure.1.1}{}}
\citation{software_libre}
\@writefile{lof}{\contentsline {figure}{\numberline {1.2}{\ignorespaces Aumento significativo de la distribuci\IeC {\'o}n digital del videojuego \cite  {libro_blanco}}}{2}{figure.1.2}}
\newlabel{img:ingresosDistribucion}{{1.2}{2}{Aumento significativo de la distribución digital del videojuego \cite {libro_blanco}}{figure.1.2}{}}
\AC@undonewlabel{acro:PFC}
\newlabel{acro:PFC}{{1}{2}{Introducción}{section*.10}{}}
\acronymused{PFC}
\@writefile{toc}{\contentsline {section}{\numberline {1.1}Justificaci\IeC {\'o}n}{2}{section.1.1}}
\acronymused{PFC}
\@writefile{toc}{\contentsline {subsubsection}{\IeC {\textquestiondown }Por qu\IeC {\'e} Software Libre?}{2}{section.1.1}}
\@writefile{toc}{\contentsline {subsubsection}{Plataforma objetivo principal}{3}{section.1.1}}
\AC@undonewlabel{acro:SDK}
\newlabel{acro:SDK}{{1.1}{3}{Plataforma objetivo principal}{section*.11}{}}
\acronymused{SDK}
\AC@undonewlabel{acro:NDK}
\newlabel{acro:NDK}{{1.1}{3}{Plataforma objetivo principal}{section*.12}{}}
\acronymused{NDK}
\@writefile{toc}{\contentsline {subsubsection}{Enfoque}{3}{section.1.1}}
\@writefile{toc}{\contentsline {section}{\numberline {1.2}Estructura del documento}{4}{section.1.2}}
\acronymused{PFC}
\@writefile{toc}{\contentsline {subsection}{\numberline {1.2.1}Capitulo 1: Introducci\IeC {\'o}n}{4}{subsection.1.2.1}}
\acronymused{PFC}
\@writefile{toc}{\contentsline {subsection}{\numberline {1.2.2}Cap\IeC {\'\i }tulo 2: Objetivos}{4}{subsection.1.2.2}}
\@writefile{toc}{\contentsline {subsection}{\numberline {1.2.3}Cap\IeC {\'\i }tulo 3: Antecedentes}{4}{subsection.1.2.3}}
\@writefile{toc}{\contentsline {subsection}{\numberline {1.2.4}Cap\IeC {\'\i }tulo 4: M\IeC {\'e}todo de trabajo}{4}{subsection.1.2.4}}
\@writefile{toc}{\contentsline {subsection}{\numberline {1.2.5}Cap\IeC {\'\i }tulo 5: Resultado Final}{4}{subsection.1.2.5}}
\@writefile{toc}{\contentsline {subsection}{\numberline {1.2.6}Conclusiones y propuestas}{4}{subsection.1.2.6}}
\@writefile{toc}{\contentsline {subsection}{\numberline {1.2.7}Bibliograf\IeC {\'\i }a}{4}{subsection.1.2.7}}
\acronymused{PFC}
\@writefile{toc}{\contentsline {subsection}{\numberline {1.2.8}Ap\IeC {\'e}ndices}{5}{subsection.1.2.8}}
\citation{libro_blanco}
\@writefile{toc}{\contentsline {chapter}{\numberline {2}Antecedentes}{7}{chapter.2}}
\@writefile{lof}{\addvspace {10\p@ }}
\@writefile{lot}{\addvspace {10\p@ }}
\newlabel{chap:antecedentes}{{2}{7}{Antecedentes}{chapter.2}{}}
\@writefile{toc}{\contentsline {section}{\numberline {2.1}La industria del videojuego}{7}{section.2.1}}
\@writefile{toc}{\contentsline {subsection}{\numberline {2.1.1}Aumento de usuarios}{7}{subsection.2.1.1}}
\@writefile{toc}{\contentsline {section}{\numberline {2.2}G\IeC {\'e}neros de videojuegos}{7}{section.2.2}}
\@writefile{lof}{\contentsline {figure}{\numberline {2.1}{\ignorespaces Captura de pantalla del juego Street Fighter II (Capcom)}}{8}{figure.2.1}}
\newlabel{img:streetFighter}{{2.1}{8}{Captura de pantalla del juego Street Fighter II (Capcom)}{figure.2.1}{}}
\@writefile{toc}{\contentsline {subsection}{\numberline {2.2.1}Lucha}{8}{subsection.2.2.1}}
\citation{game_engine}
\@writefile{lof}{\contentsline {figure}{\numberline {2.2}{\ignorespaces Captura de pantalla del juego King of Fighters (SDK)}}{9}{figure.2.2}}
\newlabel{img:kof}{{2.2}{9}{Captura de pantalla del juego King of Fighters (SDK)}{figure.2.2}{}}
\@writefile{lof}{\contentsline {figure}{\numberline {2.3}{\ignorespaces Captura de pantalla del juego Super Smash Bross (Nintendo)}}{9}{figure.2.3}}
\newlabel{img:superSmashBross}{{2.3}{9}{Captura de pantalla del juego Super Smash Bross (Nintendo)}{figure.2.3}{}}
\@writefile{toc}{\contentsline {subsection}{\numberline {2.2.2}Arcade}{10}{subsection.2.2.2}}
\@writefile{lof}{\contentsline {figure}{\numberline {2.4}{\ignorespaces Captura de pantalla del juego Knights of the Round (Capcom)}}{10}{figure.2.4}}
\newlabel{img:kotr}{{2.4}{10}{Captura de pantalla del juego Knights of the Round (Capcom)}{figure.2.4}{}}
\citation{ar_motor}
\citation{game_engine}
\@writefile{lof}{\contentsline {figure}{\numberline {2.5}{\ignorespaces Captura de pantalla del Space Invadersjuego (Taito Corporation)}}{11}{figure.2.5}}
\newlabel{img:spaceInvaders}{{2.5}{11}{Captura de pantalla del Space Invadersjuego (Taito Corporation)}{figure.2.5}{}}
\@writefile{toc}{\contentsline {subsection}{\numberline {2.2.3}Disparos}{11}{subsection.2.2.3}}
\AC@undonewlabel{acro:FPS}
\newlabel{acro:FPS}{{2.2.3}{11}{Disparos}{section*.13}{}}
\acronymused{FPS}
\acronymused{FPS}
\citation{game_engine}
\AC@undonewlabel{acro:IA}
\newlabel{acro:IA}{{2.2.3}{12}{Disparos}{section*.14}{}}
\acronymused{IA}
\@writefile{lof}{\contentsline {figure}{\numberline {2.6}{\ignorespaces Captura de pantalla de Doom (Id Software)}}{12}{figure.2.6}}
\newlabel{img:doom}{{2.6}{12}{Captura de pantalla de Doom (Id Software)}{figure.2.6}{}}
\@writefile{lof}{\contentsline {figure}{\numberline {2.7}{\ignorespaces Captura de pantalla de Max Payne (Remedy Entertainment)}}{13}{figure.2.7}}
\newlabel{img:maxPayne}{{2.7}{13}{Captura de pantalla de Max Payne (Remedy Entertainment)}{figure.2.7}{}}
\@writefile{toc}{\contentsline {subsection}{\numberline {2.2.4}Carreras}{13}{subsection.2.2.4}}
\acronymused{IA}
\citation{game_engine}
\@writefile{lof}{\contentsline {figure}{\numberline {2.8}{\ignorespaces Captura de pantalla de TrackMania (Nadeo)}}{14}{figure.2.8}}
\newlabel{img:trackMania}{{2.8}{14}{Captura de pantalla de TrackMania (Nadeo)}{figure.2.8}{}}
\@writefile{toc}{\contentsline {subsection}{\numberline {2.2.5}Estrategia}{14}{subsection.2.2.5}}
\AC@undonewlabel{acro:RTS}
\newlabel{acro:RTS}{{2.2.5}{14}{Estrategia}{section*.15}{}}
\acronymused{RTS}
\acronymused{IA}
\acronymused{RTS}
\AC@undonewlabel{acro:TBS}
\newlabel{acro:TBS}{{2.2.5}{14}{Estrategia}{section*.16}{}}
\acronymused{TBS}
\acronymused{TBS}
\acronymused{TBS}
\@writefile{lot}{\contentsline {table}{\numberline {2.1}{\ignorespaces Categor\IeC {\'\i }as de videojuegos}}{15}{table.2.1}}
\newlabel{tab:cat-videogames}{{2.1}{15}{Categorías de videojuegos}{table.2.1}{}}
\@writefile{lof}{\contentsline {figure}{\numberline {2.9}{\ignorespaces Captura de pantalla de Starcraft (Blizzard)}}{15}{figure.2.9}}
\newlabel{img:starcraft}{{2.9}{15}{Captura de pantalla de Starcraft (Blizzard)}{figure.2.9}{}}
\@writefile{lof}{\contentsline {figure}{\numberline {2.10}{\ignorespaces Captura de pantalla de Freeciv (The Freeciv Project)}}{16}{figure.2.10}}
\newlabel{img:freeciv}{{2.10}{16}{Captura de pantalla de Freeciv (The Freeciv Project)}{figure.2.10}{}}
\acronymused{MMO}
\@writefile{toc}{\contentsline {subsection}{\numberline {2.2.6}\ac {MMO}}{16}{subsection.2.2.6}}
\acronymused{MMO}
\acronymused{MMO}
\AC@undonewlabel{acro:MMORPG}
\newlabel{acro:MMORPG}{{2.2.6}{16}{\ac {MMO}}{section*.17}{}}
\citation{nine_steps}
\acronymused{MMORPG}
\@writefile{lof}{\contentsline {figure}{\numberline {2.11}{\ignorespaces Captura de pantalla de Lineage II (NCSoft)}}{17}{figure.2.11}}
\newlabel{img:lineage}{{2.11}{17}{Captura de pantalla de Lineage II (NCSoft)}{figure.2.11}{}}
\@writefile{toc}{\contentsline {section}{\numberline {2.3}Dise\IeC {\~n}o de un videojuego}{17}{section.2.3}}
\@writefile{toc}{\contentsline {subsection}{\numberline {2.3.1}Las emociones como parte del videojuego}{17}{subsection.2.3.1}}
\@writefile{lof}{\contentsline {figure}{\numberline {2.12}{\ignorespaces Gr\IeC {\'a}fico Flow}}{18}{figure.2.12}}
\@writefile{toc}{\contentsline {subsection}{\numberline {2.3.2}Equipo de desarrollo de un videojuego}{18}{subsection.2.3.2}}
\@writefile{toc}{\contentsline {subsubsection}{Dise\IeC {\~n}ador}{19}{subsection.2.3.2}}
\@writefile{toc}{\contentsline {subsubsection}{Programador}{19}{subsection.2.3.2}}
\@writefile{toc}{\contentsline {subsubsection}{Equipo art\IeC {\'\i }stico de sonido}{19}{subsection.2.3.2}}
\@writefile{toc}{\contentsline {subsubsection}{Artistas}{20}{subsection.2.3.2}}
\@writefile{toc}{\contentsline {subsubsection}{Productor}{21}{subsection.2.3.2}}
\@writefile{toc}{\contentsline {subsubsection}{Betatester}{21}{subsection.2.3.2}}
\@writefile{toc}{\contentsline {subsubsection}{Playtester}{21}{subsection.2.3.2}}
\@writefile{toc}{\contentsline {subsection}{\numberline {2.3.3}Motores de juego}{21}{subsection.2.3.3}}
\citation{unreal_engine}
\AC@undonewlabel{acro:BSP}
\newlabel{acro:BSP}{{2.3.3}{22}{Motores de juego}{section*.18}{}}
\acronymused{BSP}
\AC@undonewlabel{acro:GPL}
\newlabel{acro:GPL}{{2.3.3}{22}{Motores de juego}{section*.19}{}}
\acronymused{GPL}
\@writefile{toc}{\contentsline {subsubsection}{Unreal Engine 4}{22}{subsection.2.3.3}}
\citation{unreal_engine_price}
\citation{unity}
\@writefile{lof}{\contentsline {figure}{\numberline {2.13}{\ignorespaces BluePrint Editor}}{23}{figure.2.13}}
\@writefile{toc}{\contentsline {subsubsection}{Unity}{23}{figure.2.13}}
\@writefile{lof}{\contentsline {figure}{\numberline {2.14}{\ignorespaces Editor Unity}}{24}{figure.2.14}}
\@writefile{toc}{\contentsline {subsubsection}{Ogre3D}{24}{figure.2.14}}
\@writefile{toc}{\contentsline {chapter}{\numberline {3}Objetivos}{25}{chapter.3}}
\@writefile{lof}{\addvspace {10\p@ }}
\@writefile{lot}{\addvspace {10\p@ }}
\acronymused{PFC}
\@writefile{toc}{\contentsline {section}{\numberline {3.1}Objetivo general}{25}{section.3.1}}
\acronymused{PFC}
\@writefile{toc}{\contentsline {section}{\numberline {3.2}Objetivos espec\IeC {\'\i }ficos}{25}{section.3.2}}
\@writefile{toc}{\contentsline {subsection}{\numberline {3.2.1}Objetivos funcionales o de dise\IeC {\~n}o}{25}{subsection.3.2.1}}
\citation{cplus_game}
\AC@undonewlabel{acro:HUD}
\newlabel{acro:HUD}{{3.2.1}{26}{\enit@align {\enit@format {\ac {HUD} sencillo y claro}}}{section*.20}{}}
\acronymused{HUD}
\acronymused{HUD}
\@writefile{toc}{\contentsline {subsection}{\numberline {3.2.2}Objetivos t\IeC {\'e}cnicos o de implementaci\IeC {\'o}n}{26}{subsection.3.2.2}}
\AC@undonewlabel{acro:APK}
\newlabel{acro:APK}{{3.2.2}{27}{Objetivos técnicos o de implementación}{section*.21}{}}
\acronymused{APK}
\@writefile{toc}{\contentsline {subsection}{\numberline {3.2.3}Objetivos Comerciales}{27}{subsection.3.2.3}}
\citation{scrum_videogames}
\citation{scrum_trincheras}
\citation{scrum_trincheras}
\@writefile{toc}{\contentsline {chapter}{\numberline {4}M\IeC {\'e}todo de trabajo}{29}{chapter.4}}
\@writefile{lof}{\addvspace {10\p@ }}
\@writefile{lot}{\addvspace {10\p@ }}
\@writefile{toc}{\contentsline {section}{\numberline {4.1}Metodolog\IeC {\'\i }a}{29}{section.4.1}}
\acronymused{PFC}
\citation{licencias_libres}
\@writefile{toc}{\contentsline {section}{\numberline {4.2}Hardware}{30}{section.4.2}}
\@writefile{toc}{\contentsline {section}{\numberline {4.3}Motor de Juego}{30}{section.4.3}}
\AC@undonewlabel{acro:FSF}
\newlabel{acro:FSF}{{4.3}{30}{Motor de Juego}{section*.22}{}}
\acronymused{FSF}
\citation{list_game_engines}
\citation{gameplay3D}
\citation{webgl}
\@writefile{toc}{\contentsline {subsubsection}{GamePlay3D}{31}{section.4.3}}
\@writefile{toc}{\contentsline {subsubsection}{Blend4Web}{31}{figure.4.1}}
\acronymused{API}
\@writefile{lof}{\contentsline {figure}{\numberline {4.1}{\ignorespaces Captura de Pantalla de Rush Hour Hero (implementado con GamePlay3D)}}{32}{figure.4.1}}
\@writefile{toc}{\contentsline {subsubsection}{Dim3}{32}{figure.4.2}}
\@writefile{toc}{\contentsline {subsubsection}{Godot}{32}{figure.4.3}}
\citation{ogreBegginer}
\@writefile{lof}{\contentsline {figure}{\numberline {4.2}{\ignorespaces Captura de Pantalla de Experience Curiosity, desarrollado por NASA Jet Propulsion Laboratory (implementado con Blend4Web)}}{33}{figure.4.2}}
\@writefile{toc}{\contentsline {subsubsection}{Ogre3D}{33}{figure.4.5}}
\citation{torchlight}
\citation{boost}
\citation{sdl}
\@writefile{lof}{\contentsline {figure}{\numberline {4.3}{\ignorespaces Captura de Pantalla de Scruffy, desarrollado por Bran Barnes, autor de Dim3)}}{34}{figure.4.3}}
\acronymused{IA}
\AC@undonewlabel{acro:SDL}
\newlabel{acro:SDL}{{4.3}{34}{\enit@align {\enit@format {\ac {SDL}}}}{section*.23}{}}
\acronymused{SDL}
\citation{archlinux}
\citation{emacs}
\@writefile{lof}{\contentsline {figure}{\numberline {4.4}{\ignorespaces Captura de Pantalla del editor de Godot}}{35}{figure.4.4}}
\newlabel{img:godot}{{4.4}{35}{Captura de Pantalla del editor de Godot}{figure.4.4}{}}
\@writefile{toc}{\contentsline {section}{\numberline {4.4}Otras herramientas de Software}{35}{section.4.4}}
\acronymused{PFC}
\@writefile{toc}{\contentsline {subsection}{\numberline {4.4.1}Sistema Operativo}{35}{subsection.4.4.1}}
\@writefile{toc}{\contentsline {subsection}{\numberline {4.4.2}Emacs}{35}{subsection.4.4.2}}
\@writefile{lof}{\contentsline {figure}{\numberline {4.5}{\ignorespaces Captura de Pantalla de Steam Quest, desarrollado por K\IeC {\'\i }vano (implementado con Godot)}}{36}{figure.4.5}}
\citation{gimp}
\@writefile{lof}{\contentsline {figure}{\numberline {4.6}{\ignorespaces Captura de Pantalla de TorchLight, desarrollado por Runic Games (implementado con Ogre)}}{37}{figure.4.6}}
\newlabel{img:torch}{{4.6}{37}{Captura de Pantalla de TorchLight, desarrollado por Runic Games (implementado con Ogre)}{figure.4.6}{}}
\AC@undonewlabel{acro:GCC}
\newlabel{acro:GCC}{{4.4.2}{37}{\ac {GCC}}{section*.24}{}}
\acronymused{GCC}
\@writefile{toc}{\contentsline {subsubsection}{\ac {GCC}}{37}{figure.4.7}}
\acronymused{NDK}
\@writefile{lof}{\contentsline {figure}{\numberline {4.7}{\ignorespaces Captura de Pantalla de Emacs. Se puede observar como est\IeC {\'a}n activadas las extensiones de FlyCheck, Yasnippet y Projectile.}}{38}{figure.4.7}}
\newlabel{img:emacs}{{4.7}{38}{Captura de Pantalla de Emacs. Se puede observar como están activadas las extensiones de FlyCheck, Yasnippet y Projectile}{figure.4.7}{}}
\acronymused{GIMP}
\@writefile{toc}{\contentsline {subsubsection}{\ac {GIMP}}{38}{figure.4.7}}
\acronymused{GIMP}
\@writefile{lof}{\contentsline {figure}{\numberline {4.8}{\ignorespaces Captura de la edici\IeC {\'o}n de uno de los botones en \ac {GIMP}.}}{38}{figure.4.8}}
\acronymused{GIMP}
\newlabel{img:gimp}{{4.8}{38}{Captura de la edición de uno de los botones en \ac {GIMP}}{figure.4.8}{}}
\acronymused{GIMP}
\acronymused{GIMP}
\citation{blender}
\acronymused{GIMP}
\acronymused{GIMP}
\@writefile{toc}{\contentsline {subsubsection}{Blender}{39}{figure.4.8}}
\acronymused{NDK}
\acronymused{SDK}
\@writefile{toc}{\contentsline {subsubsection}{Android \ac {NDK} y \ac {SDK}}{39}{figure.4.9}}
\@writefile{lof}{\contentsline {figure}{\numberline {4.9}{\ignorespaces Animando un enemigo por cinem\IeC {\'a}tica inversa en Blender.}}{40}{figure.4.9}}
\newlabel{img:blender}{{4.9}{40}{Animando un enemigo por cinemática inversa en Blender}{figure.4.9}{}}
\citation{game_design}
\@writefile{toc}{\contentsline {chapter}{\numberline {5}Resultados}{41}{chapter.5}}
\@writefile{lof}{\addvspace {10\p@ }}
\@writefile{lot}{\addvspace {10\p@ }}
\acronymused{PFC}
\@writefile{toc}{\contentsline {section}{\numberline {5.1}Dise\IeC {\~n}o del videojuego}{41}{section.5.1}}
\@writefile{toc}{\contentsline {subsection}{\numberline {5.1.1}Desarrollo del concepto}{41}{subsection.5.1.1}}
\@writefile{toc}{\contentsline {paragraph}{El concepto b\IeC {\'a}sico}{41}{subsection.5.1.1}}
\@writefile{toc}{\contentsline {paragraph}{La propuesta del juego}{41}{subsection.5.1.1}}
\@writefile{toc}{\contentsline {paragraph}{GamePlay}{42}{figure.5.1}}
\@writefile{lof}{\contentsline {figure}{\numberline {5.1}{\ignorespaces Dos robots de ambientaci\IeC {\'o}n Steam Punk}}{43}{figure.5.1}}
\newlabel{img:steamPunk}{{5.1}{43}{Dos robots de ambientación Steam Punk}{figure.5.1}{}}
\citation{ogre_android}
\citation{android_api}
\citation{android_api}
\citation{ogre_android}
\@writefile{lof}{\contentsline {figure}{\numberline {5.2}{\ignorespaces Iconos de construcci\IeC {\'o}n de torres}}{44}{figure.5.2}}
\newlabel{img:iconosTorre}{{5.2}{44}{Iconos de construcción de torres}{figure.5.2}{}}
\@writefile{toc}{\contentsline {section}{\numberline {5.2}Preparando el entorno}{44}{section.5.2}}
\@writefile{toc}{\contentsline {subsection}{\numberline {5.2.1}Instalaci\IeC {\'o}n de Android NDK y SDK}{44}{subsection.5.2.1}}
\acronymused{API}
\acronymused{API}
\acronymused{API}
\acronymused{API}
\@writefile{toc}{\contentsline {subsection}{\numberline {5.2.2}Compilando Ogre3D para Android}{44}{subsection.5.2.2}}
\citation{ogre_android}
\citation{ogre_android}
\@writefile{lof}{\contentsline {figure}{\numberline {5.3}{\ignorespaces Relaci\IeC {\'o}n entra la versi\IeC {\'o}n de Android y el nivel de \ac {API} \cite  {android_api}.}}{45}{figure.5.3}}
\acronymused{API}
\newlabel{img:android_api}{{5.3}{45}{Relación entra la versión de Android y el nivel de \ac {API} \cite {android_api}}{figure.5.3}{}}
\@writefile{toc}{\contentsline {subsubsection}{Descarga del c\IeC {\'o}digo fuente}{45}{subsection.5.2.2}}
\@writefile{toc}{\contentsline {subsection}{\numberline {5.2.3}Descarga y compilaci\IeC {\'o}n de las dependencias de OGRE3D}{45}{subsection.5.2.3}}
\@writefile{toc}{\contentsline {subsubsection}{Compilando Ogre3D}{45}{subsection.5.2.3}}
\@writefile{lof}{\contentsline {figure}{\numberline {5.4}{\ignorespaces Etiqueta 1.9 del c\IeC {\'o}digo fuente de Ogre3D.}}{46}{figure.5.4}}
\newlabel{img:branch_ogre}{{5.4}{46}{Etiqueta 1.9 del código fuente de Ogre3D}{figure.5.4}{}}
\acronymused{NDK}
\acronymused{NDK}
\@writefile{toc}{\contentsline {paragraph}{Problema con la detecci\IeC {\'o}n del Endianess}{46}{subsection.5.2.3}}
\newlabel{code:lscpu}{{5.1}{46}{Comando para averiguar si el sistema es Big Endian o Little Endian en Linux}{lstlisting.5.1}{}}
\@writefile{lol}{\contentsline {lstlisting}{\numberline {5.1}Comando para averiguar si el sistema es Big Endian o Little Endian en Linux.}{46}{lstlisting.5.1}}
\newlabel{code:bigendian}{{5.2}{46}{Líneas a sustituir en CMakeList.txt}{lstlisting.5.2}{}}
\@writefile{lol}{\contentsline {lstlisting}{\numberline {5.2}L\IeC {\'\i }neas a sustituir en CMakeList.txt}{46}{lstlisting.5.2}}
\@writefile{toc}{\contentsline {paragraph}{Errores al buscar el directorio de las librer\IeC {\'\i }as de C++}{46}{lstnumber.5.3.1}}
\acronymused{NDK}
\acronymused{NDK}
\citation{ogre_android}
\citation{ogre_android}
\citation{ogre_android}
\newlabel{code:setbigendian}{{5.3}{47}{Código para establecer Little Endian en CMakeList.txt. Cambiar FALSE por TRUE si el sistema es Big Endian }{lstlisting.5.3}{}}
\@writefile{lol}{\contentsline {lstlisting}{\numberline {5.3}C\IeC {\'o}digo para establecer Little Endian en CMakeList.txt. Cambiar FALSE por TRUE si el sistema es Big Endian }{47}{lstlisting.5.3}}
\newlabel{code:ruta_std_android}{{5.4}{47}{Corregir los paths de estás líneas. Solamente será necesario cambiar el número de versión (en este ejemplo 4.9) }{lstlisting.5.4}{}}
\@writefile{lol}{\contentsline {lstlisting}{\numberline {5.4}Corregir los paths de est\IeC {\'a}s l\IeC {\'\i }neas. Solamente ser\IeC {\'a} necesario cambiar el n\IeC {\'u}mero de versi\IeC {\'o}n (en este ejemplo 4.9) }{47}{lstlisting.5.4}}
\@writefile{toc}{\contentsline {paragraph}{Errores FreeType y PKGConfig}{47}{lstnumber.5.4.5}}
\newlabel{code:cmake_ogre}{{5.5}{47}{Comando para compilar Ogre para Android. Los 4 últimos flags no figuran en \cite {ogre_android}}{lstlisting.5.5}{}}
\@writefile{lol}{\contentsline {lstlisting}{\numberline {5.5}Comando para compilar Ogre para Android. Los 4 \IeC {\'u}ltimos flags no figuran en \cite  {ogre_android}}{47}{lstlisting.5.5}}
\@writefile{toc}{\contentsline {paragraph}{Errores en la compilacion de SampleBrowser}{47}{lstnumber.5.5.7}}
\AC@undonewlabel{acro:STL}
\newlabel{acro:STL}{{5.2.3}{48}{Errores en la compilacion de SampleBrowser}{section*.25}{}}
\acronymused{STL}
\acronymused{NDK}
\@writefile{toc}{\contentsline {section}{\numberline {5.3}Arquitectura del proyecto}{48}{section.5.3}}
\@writefile{toc}{\contentsline {subsection}{\numberline {5.3.1}Gesti\IeC {\'o}n de Enemigos}{48}{subsection.5.3.1}}
\@writefile{toc}{\contentsline {subsubsection}{Enemy}{48}{figure.5.5}}
\@writefile{lof}{\contentsline {figure}{\numberline {5.5}{\ignorespaces Diagrama de Clases del modulo de gesti\IeC {\'o}n de enemigos.}}{49}{figure.5.5}}
\newlabel{img:gestion_enemigos}{{5.5}{49}{Diagrama de Clases del modulo de gestión de enemigos}{figure.5.5}{}}
\@writefile{toc}{\contentsline {subsubsection}{EnemyFactory}{50}{figure.5.5}}
\newlabel{code:enemyscfg}{{5.6}{50}{Ejemplo del contenido de enemys.cfg}{lstlisting.5.6}{}}
\@writefile{lol}{\contentsline {lstlisting}{\numberline {5.6}Ejemplo del contenido de enemys.cfg}{50}{lstlisting.5.6}}
\@writefile{toc}{\contentsline {subsubsection}{Wave}{50}{lstnumber.5.6.5}}
\@writefile{toc}{\contentsline {subsubsection}{WaveManager}{51}{lstnumber.5.6.5}}
\newlabel{code:wavescfg}{{5.7}{52}{Ejemplo del contenido de waves.cfg}{lstlisting.5.7}{}}
\@writefile{lol}{\contentsline {lstlisting}{\numberline {5.7}Ejemplo del contenido de waves.cfg}{52}{lstlisting.5.7}}
\@writefile{toc}{\contentsline {subsection}{\numberline {5.3.2}Gesti\IeC {\'o}n de las torres}{52}{subsection.5.3.2}}
\@writefile{lof}{\contentsline {figure}{\numberline {5.6}{\ignorespaces Diagrama de Clases del m\IeC {\'o}dulo de gesti\IeC {\'o}n de torres.}}{53}{figure.5.6}}
\newlabel{img:gestion_torres}{{5.6}{53}{Diagrama de Clases del módulo de gestión de torres}{figure.5.6}{}}
\@writefile{toc}{\contentsline {subsubsection}{Projectile}{53}{figure.5.6}}
\@writefile{toc}{\contentsline {subsubsection}{Tower}{53}{figure.5.6}}
\@writefile{toc}{\contentsline {subsubsection}{TowerFactory}{54}{figure.5.6}}
\newlabel{code:towerscfg}{{5.8}{55}{Ejemplo del contenido de towers.cfg}{lstlisting.5.8}{}}
\@writefile{lol}{\contentsline {lstlisting}{\numberline {5.8}Ejemplo del contenido de towers.cfg}{55}{lstlisting.5.8}}
\citation{graph_ml}
\citation{boost}
\@writefile{toc}{\contentsline {subsection}{\numberline {5.3.3}Gesti\IeC {\'o}n del mapa}{56}{subsection.5.3.3}}
\@writefile{toc}{\contentsline {subsubsection}{MapTile}{56}{figure.5.7}}
\@writefile{toc}{\contentsline {subsubsection}{graphmlBoost}{56}{figure.5.7}}
\@writefile{lof}{\contentsline {figure}{\numberline {5.7}{\ignorespaces Diagrama de Clases del m\IeC {\'o}dulo de gesti\IeC {\'o}n de mapas.}}{57}{figure.5.7}}
\newlabel{img:gestion_mapas}{{5.7}{57}{Diagrama de Clases del módulo de gestión de mapas}{figure.5.7}{}}
\newlabel{code:graphml}{{5.9}{58}{Un archivo graphML}{lstlisting.5.9}{}}
\@writefile{lol}{\contentsline {lstlisting}{\numberline {5.9}Un archivo graphML}{58}{lstlisting.5.9}}
\citation{busqueda_anchura}
\newlabel{code:ejemplo_bfs}{{5.10}{59}{Código para lanzar una búsqueda por anchura}{lstlisting.5.10}{}}
\@writefile{lol}{\contentsline {lstlisting}{\numberline {5.10}C\IeC {\'o}digo para lanzar una b\IeC {\'u}squeda por anchura.}{59}{lstlisting.5.10}}
\@writefile{toc}{\contentsline {subsubsection}{Map}{60}{lstnumber.5.10.8}}
\@writefile{toc}{\contentsline {subsubsection}{MapManager}{60}{lstnumber.5.10.8}}
\citation{sdl}
\@writefile{toc}{\contentsline {subsection}{\numberline {5.3.4}Sistemas Transversales o de Apoyo}{61}{subsection.5.3.4}}
\@writefile{toc}{\contentsline {subsubsection}{Sistema de Sonido}{61}{subsection.5.3.4}}
\acronymused{SDL}
\@writefile{toc}{\contentsline {paragraph}{SoundManager }{61}{subsection.5.3.4}}
\acronymused{SDL}
\@writefile{toc}{\contentsline {paragraph}{Sound}{61}{subsection.5.3.4}}
\acronymused{SDL}
\acronymused{SDL}
\acronymused{SDL}
\@writefile{toc}{\contentsline {subsubsection}{Control de Flujo del juego}{62}{subsection.5.3.4}}
\@writefile{lof}{\contentsline {figure}{\numberline {5.8}{\ignorespaces Diagrama de estados del juego}}{62}{figure.5.8}}
\newlabel{img:estados}{{5.8}{62}{Diagrama de estados del juego}{figure.5.8}{}}
\@writefile{toc}{\contentsline {section}{\numberline {5.4}Decisiones T\IeC {\'e}cnicas}{63}{section.5.4}}
\@writefile{toc}{\contentsline {subsubsection}{Edici\IeC {\'o}n de Mapas}{63}{section.5.4}}
\@writefile{lof}{\contentsline {figure}{\numberline {5.9}{\ignorespaces Editor de mapas del juego, elaborado en Blender mediante el lenguaje Python}}{64}{figure.5.9}}
\newlabel{img:editor}{{5.9}{64}{Editor de mapas del juego, elaborado en Blender mediante el lenguaje Python}{figure.5.9}{}}
\citation{ogre_tiles}
\@writefile{lof}{\contentsline {figure}{\numberline {5.10}{\ignorespaces Editor de mapas del juego, con los v\IeC {\'e}rtices de tipo road resaltados.}}{65}{figure.5.10}}
\newlabel{img:editor2}{{5.10}{65}{Editor de mapas del juego, con los vértices de tipo road resaltados}{figure.5.10}{}}
\@writefile{toc}{\contentsline {subsubsection}{Dibujado del mapa}{65}{figure.5.10}}
\@writefile{lof}{\contentsline {figure}{\numberline {5.11}{\ignorespaces Pantalla de juego realizada con tiles.}}{66}{figure.5.11}}
\newlabel{img:juego_tiles}{{5.11}{66}{Pantalla de juego realizada con tiles}{figure.5.11}{}}
\@writefile{toc}{\contentsline {subsection}{\numberline {5.4.1}Gesti\IeC {\'o}n de la entrada}{66}{subsection.5.4.1}}
\@writefile{toc}{\contentsline {subsection}{\numberline {5.4.2}Interfaz de usuario}{66}{subsection.5.4.2}}
\AC@undonewlabel{acro:CEGUI}
\newlabel{acro:CEGUI}{{5.4.2}{66}{\enit@align {\enit@format {\ac {CEGUI}}}}{section*.26}{}}
\acronymused{CEGUI}
\citation{prg_grafica}
\@writefile{lof}{\contentsline {figure}{\numberline {5.12}{\ignorespaces Pantalla de juego realizada con una sola malla de geometr\IeC {\'\i }a est\IeC {\'a}tica.}}{67}{figure.5.12}}
\newlabel{img:juego_no_tiles}{{5.12}{67}{Pantalla de juego realizada con una sola malla de geometría estática}{figure.5.12}{}}
\@writefile{toc}{\contentsline {subsection}{\numberline {5.4.3}T\IeC {\'e}cnicas de Sombreado}{67}{subsection.5.4.3}}
\@writefile{lof}{\contentsline {figure}{\numberline {5.13}{\ignorespaces Captura de pantalla de SampleBrowser de Ogre3D, que utiliza SDKTrays para su interfaz usuario.}}{68}{figure.5.13}}
\newlabel{img:sdktrays}{{5.13}{68}{Captura de pantalla de SampleBrowser de Ogre3D, que utiliza SDKTrays para su interfaz usuario}{figure.5.13}{}}
\@writefile{lof}{\contentsline {figure}{\numberline {5.14}{\ignorespaces Captura de pantalla de Open Dungeons en la que se puede apreciar la interfaz, implementada con CEGUI.}}{68}{figure.5.14}}
\newlabel{img:cegui}{{5.14}{68}{Captura de pantalla de Open Dungeons en la que se puede apreciar la interfaz, implementada con CEGUI}{figure.5.14}{}}
\@writefile{lof}{\contentsline {figure}{\numberline {5.15}{\ignorespaces Captura de pantalla de Energy Tycoon, cuya interfaz est\IeC {\'a} implementada con MYGUI.}}{69}{figure.5.15}}
\newlabel{img:cegui}{{5.15}{69}{Captura de pantalla de Energy Tycoon, cuya interfaz está implementada con MYGUI}{figure.5.15}{}}
\AC@undonewlabel{acro:GPU}
\newlabel{acro:GPU}{{5.4.3}{69}{Técnicas de Sombreado}{section*.27}{}}
\acronymused{GPU}
\AC@undonewlabel{acro:CPU}
\newlabel{acro:CPU}{{5.4.3}{69}{Técnicas de Sombreado}{section*.28}{}}
\acronymused{CPU}
\acronymused{CPU}
\@writefile{toc}{\contentsline {subsection}{\numberline {5.4.4}Ogre3D y SDL}{69}{subsection.5.4.4}}
\@writefile{toc}{\contentsline {subsubsection}{Ogre3D crea la ventana}{69}{subsection.5.4.4}}
\citation{ogre_egl_bugs}
\newlabel{code:ejemplo_overlay}{{5.11}{70}{Script de overlays para dibujar los botones del menú}{lstlisting.5.11}{}}
\@writefile{lol}{\contentsline {lstlisting}{\numberline {5.11}Script de overlays para dibujar los botones del men\IeC {\'u}.}{70}{lstlisting.5.11}}
\AC@undonewlabel{acro:HID}
\newlabel{acro:HID}{{5.4.4}{70}{Ogre3D crea la ventana}{section*.29}{}}
\acronymused{HID}
\AC@undonewlabel{acro:JNI}
\newlabel{acro:JNI}{{5.4.4}{70}{Ogre3D crea la ventana}{section*.30}{}}
\acronymused{JNI}
\@writefile{toc}{\contentsline {subsubsection}{SDL crea la ventana}{70}{subsection.5.4.4}}
\@writefile{lof}{\contentsline {figure}{\numberline {5.16}{\ignorespaces Comparativa de modos de sombreado. Se pueden observar los bordes duros de la sombra mediante Stencil Buffer.}}{71}{figure.5.16}}
\newlabel{img:stencil}{{5.16}{71}{Comparativa de modos de sombreado. Se pueden observar los bordes duros de la sombra mediante Stencil Buffer}{figure.5.16}{}}
\@writefile{toc}{\contentsline {subsection}{\numberline {5.4.5}Otros ajustes}{71}{subsection.5.4.5}}
\@writefile{toc}{\contentsline {subsubsection}{Problemas con las rutas}{71}{subsection.5.4.5}}
\newlabel{code:file_access}{{5.12}{72}{Carga de la pantalla de Loading. Se aprecia la diferencia de código según la plataforma}{lstlisting.5.12}{}}
\@writefile{lol}{\contentsline {lstlisting}{\numberline {5.12}Carga de la pantalla de Loading. Se aprecia la diferencia de c\IeC {\'o}digo seg\IeC {\'u}n la plataforma.}{72}{lstlisting.5.12}}
\@writefile{toc}{\contentsline {subsubsection}{Conflictos entre SDL\_Image y Ogre3D}{72}{lstnumber.5.12.15}}
\@writefile{toc}{\contentsline {subsubsection}{Carga autom\IeC {\'a}tica de Plugins}{72}{lstnumber.5.12.15}}
\@writefile{toc}{\contentsline {section}{\numberline {5.5}An\IeC {\'a}lisis de Costes}{72}{section.5.5}}
\@writefile{toc}{\contentsline {subsection}{\numberline {5.5.1}Investigaci\IeC {\'o}n y establecimiento de entorno de desarrollo.}{73}{subsection.5.5.1}}
\@writefile{lot}{\contentsline {table}{\numberline {5.1}{\ignorespaces Coste de Investigaci\IeC {\'o}n}}{73}{table.5.1}}
\newlabel{tab:costeInvestigacion}{{5.1}{73}{Coste de Investigación}{table.5.1}{}}
\@writefile{toc}{\contentsline {subsection}{\numberline {5.5.2}Desarrollo del prototipo}{73}{subsection.5.5.2}}
\@writefile{lot}{\contentsline {table}{\numberline {5.2}{\ignorespaces Coste de Desarrollo}}{73}{table.5.2}}
\newlabel{tab:costeDesarrollo}{{5.2}{73}{Coste de Desarrollo}{table.5.2}{}}
\@writefile{toc}{\contentsline {section}{\numberline {5.6}Monetizaci\IeC {\'o}n y Marketing}{73}{section.5.6}}
\acronymused{PFC}
\citation{modelos_negocio}
\@writefile{toc}{\contentsline {subsection}{\numberline {5.6.1}Definici\IeC {\'o}n del producto y mercado objetivo}{74}{subsection.5.6.1}}
\@writefile{toc}{\contentsline {subsection}{\numberline {5.6.2}Modelos de negocio}{74}{subsection.5.6.2}}
\@writefile{lof}{\contentsline {figure}{\numberline {5.17}{\ignorespaces Compras en Pokemon GO (desarrollado por Niantic).}}{75}{figure.5.17}}
\newlabel{img:compras}{{5.17}{75}{Compras en Pokemon GO (desarrollado por Niantic)}{figure.5.17}{}}
\@writefile{lof}{\contentsline {figure}{\numberline {5.18}{\ignorespaces Kayak, un buscador de vuelo, se rentabiliza por comisi\IeC {\'o}es de venta.}}{76}{figure.5.18}}
\newlabel{img:kayak}{{5.18}{76}{Kayak, un buscador de vuelo, se rentabiliza por comisióes de venta}{figure.5.18}{}}
\@writefile{lof}{\contentsline {figure}{\numberline {5.19}{\ignorespaces Minecraft: Pocket Edition (desarrollado por Mojang).}}{77}{figure.5.19}}
\newlabel{img:minecraft}{{5.19}{77}{Minecraft: Pocket Edition (desarrollado por Mojang)}{figure.5.19}{}}
\@writefile{toc}{\contentsline {subsection}{\numberline {5.6.3}Calculo de amortizaci\IeC {\'o}n}{77}{subsection.5.6.3}}
\AC@undonewlabel{acro:CPM}
\newlabel{acro:CPM}{{5.6.3}{77}{Calculo de amortización}{section*.31}{}}
\acronymused{CPM}
\@writefile{lot}{\contentsline {table}{\numberline {5.3}{\ignorespaces Cuadro de Amortizaci\IeC {\'o}n}}{78}{table.5.3}}
\newlabel{tab:amortizacion}{{5.3}{78}{Cuadro de Amortización}{table.5.3}{}}
\@writefile{toc}{\contentsline {subsection}{\numberline {5.6.4}Marketing}{78}{subsection.5.6.4}}
\AC@undonewlabel{acro:FAQ}
\newlabel{acro:FAQ}{{5.6.4}{78}{Marketing}{section*.32}{}}
\acronymused{FAQ}
\@writefile{lof}{\contentsline {figure}{\numberline {5.20}{\ignorespaces Im\IeC {\'a}gen de un video del Canal LuzuGames, especializado en juegos.}}{79}{figure.5.20}}
\newlabel{img:youtuber}{{5.20}{79}{Imágen de un video del Canal LuzuGames, especializado en juegos}{figure.5.20}{}}
\@writefile{toc}{\contentsline {chapter}{\numberline {6}Conclusiones y propuestas}{81}{chapter.6}}
\@writefile{lof}{\addvspace {10\p@ }}
\@writefile{lot}{\addvspace {10\p@ }}
\@writefile{toc}{\contentsline {section}{\numberline {6.1}Conclusiones}{81}{section.6.1}}
\@writefile{toc}{\contentsline {section}{\numberline {6.2}Objetivos de dise\IeC {\~n}o}{81}{section.6.2}}
\@writefile{lof}{\contentsline {figure}{\numberline {6.1}{\ignorespaces Ejemplo de un bot\IeC {\'o}n del HUD.}}{81}{figure.6.1}}
\newlabel{img:ejemploBoton}{{6.1}{81}{Ejemplo de un botón del HUD}{figure.6.1}{}}
\acronymused{HUD}
\@writefile{lof}{\contentsline {figure}{\numberline {6.2}{\ignorespaces Ejemplo de un bot\IeC {\'o}n del HUD.}}{83}{figure.6.2}}
\newlabel{img:hud}{{6.2}{83}{Ejemplo de un botón del HUD}{figure.6.2}{}}
\@writefile{toc}{\contentsline {section}{\numberline {6.3}Objetivos t\IeC {\'e}cnicos o de implementaci\IeC {\'o}n}{83}{section.6.3}}
\acronymused{STL}
\acronymused{STL}
\acronymused{NDK}
\newlabel{code:ejemploBifur}{{6.1}{84}{Ejemplo de bifurcación de código mediante el uso de OGRE\_PLAFORM}{lstlisting.6.1}{}}
\@writefile{lol}{\contentsline {lstlisting}{\numberline {6.1}Ejemplo de bifurcaci\IeC {\'o}n de c\IeC {\'o}digo mediante el uso de OGRE\_PLAFORM.}{84}{lstlisting.6.1}}
\acronymused{GIMP}
\acronymused{GIMP}
\@writefile{lof}{\contentsline {figure}{\numberline {6.3}{\ignorespaces Textura del enemigo de tipo Robot. El efecto de metalizado se ha conseguido mediante la aplicaci\IeC {\'o}n de varios filtros.}}{86}{figure.6.3}}
\newlabel{img:textura}{{6.3}{86}{Textura del enemigo de tipo Robot. El efecto de metalizado se ha conseguido mediante la aplicación de varios filtros}{figure.6.3}{}}
\acronymused{APK}
\@writefile{toc}{\contentsline {section}{\numberline {6.4}Conclusiones globales}{87}{section.6.4}}
\AC@undonewlabel{acro:ADB}
\newlabel{acro:ADB}{{6.4}{88}{Conclusiones globales}{section*.33}{}}
\acronymused{ADB}
\AC@undonewlabel{acro:SD}
\newlabel{acro:SD}{{6.4}{89}{Conclusiones globales}{section*.34}{}}
\acronymused{SD}
\citation{blender_bake}
\acronymused{PFC}
\@writefile{toc}{\contentsline {section}{\numberline {6.5}Propuestas de trabajo futuro}{90}{section.6.5}}
\@writefile{toc}{\contentsline {subsection}{\numberline {6.5.1}Mejoras en la calidad gr\IeC {\'a}fica}{90}{subsection.6.5.1}}
\@writefile{lof}{\contentsline {figure}{\numberline {6.4}{\ignorespaces Un ejemplo de Baking para mejorar un m\IeC {\'o}delo de baja densidad poligonal.}}{91}{figure.6.4}}
\newlabel{img:bake}{{6.4}{91}{Un ejemplo de Baking para mejorar un módelo de baja densidad poligonal}{figure.6.4}{}}
\@writefile{lof}{\contentsline {figure}{\numberline {6.5}{\ignorespaces Ogre3D Particle Lab que permite experimentar con diferentes par\IeC {\'a}metros de part\IeC {\'\i }culas. Funciona tanto en Windows como en Linux (bajo Wine).}}{92}{figure.6.5}}
\newlabel{img:particleLab}{{6.5}{92}{Ogre3D Particle Lab que permite experimentar con diferentes parámetros de partículas. Funciona tanto en Windows como en Linux (bajo Wine)}{figure.6.5}{}}
\acronymused{GIMP}
\@writefile{lof}{\contentsline {figure}{\numberline {6.6}{\ignorespaces Pantalla de carga de juego Clash of Clans (desarrollado por SuperCell). Se puede ver el dibujo de gran calidad, junto con una barra de progreso y un consejo ofrecido al jugador.}}{93}{figure.6.6}}
\newlabel{img:clan_clash}{{6.6}{93}{Pantalla de carga de juego Clash of Clans (desarrollado por SuperCell). Se puede ver el dibujo de gran calidad, junto con una barra de progreso y un consejo ofrecido al jugador}{figure.6.6}{}}
\@writefile{toc}{\contentsline {subsubsection}{Multijugador}{93}{figure.6.8}}
\@writefile{lof}{\contentsline {figure}{\numberline {6.7}{\ignorespaces Niebla en Ogre3D.}}{94}{figure.6.7}}
\newlabel{img:lluvia}{{6.7}{94}{Niebla en Ogre3D}{figure.6.7}{}}
\@writefile{lof}{\contentsline {figure}{\numberline {6.8}{\ignorespaces Ejemplo de Lluvia en Ogre3D mediante part\IeC {\'\i }culas.}}{95}{figure.6.8}}
\newlabel{img:lluvia}{{6.8}{95}{Ejemplo de Lluvia en Ogre3D mediante partículas}{figure.6.8}{}}
\@writefile{lof}{\contentsline {figure}{\numberline {6.9}{\ignorespaces Captura de pantalla de Clash Royale ( desarrolado por Supercell).}}{96}{figure.6.9}}
\newlabel{img:clashRoyale}{{6.9}{96}{Captura de pantalla de Clash Royale ( desarrolado por Supercell)}{figure.6.9}{}}
\@writefile{lof}{\contentsline {figure}{\numberline {6.10}{\ignorespaces Logros de Pokemon GO (desarrollado por Niantic), representados por medallas}}{96}{figure.6.10}}
\newlabel{img:pokemonGoMedals}{{6.10}{96}{Logros de Pokemon GO (desarrollado por Niantic), representados por medallas}{figure.6.10}{}}
\@writefile{lof}{\contentsline {figure}{\numberline {6.11}{\ignorespaces Tablero de clasificaci\IeC {\'o}n de Clash Of Clans (SuperCell).}}{97}{figure.6.11}}
\newlabel{img:ranking}{{6.11}{97}{Tablero de clasificación de Clash Of Clans (SuperCell)}{figure.6.11}{}}
\acronymused{API}
\@writefile{toc}{\contentsline {chapter}{\numberline {A}Guia r\IeC {\'a}pida de uso}{101}{appendix.Alph1}}
\@writefile{lof}{\addvspace {10\p@ }}
\@writefile{lot}{\addvspace {10\p@ }}
\@writefile{toc}{\contentsline {subsection}{\numberline {A.0.1}Pantalla de cargando}{101}{subsection.Alph1.0.1}}
\@writefile{toc}{\contentsline {subsection}{\numberline {A.0.2}Pantalla de Men\IeC {\'u}}{101}{subsection.Alph1.0.2}}
\@writefile{toc}{\contentsline {subsection}{\numberline {A.0.3}Pantalla Principal de juego}{101}{subsection.Alph1.0.3}}
\@writefile{lof}{\contentsline {figure}{\numberline {A.1}{\ignorespaces Pantalla de bienvenida al juego}}{102}{figure.Alph1.1}}
\newlabel{img:loading}{{A.0.1}{102}{Pantalla de cargando}{figure.Alph1.1}{}}
\@writefile{toc}{\contentsline {paragraph}{Construcci\IeC {\'o}n de una torre.}{102}{figure.Alph1.3}}
\@writefile{toc}{\contentsline {paragraph}{Mejora de las torres.}{102}{figure.Alph1.6}}
\@writefile{lof}{\contentsline {figure}{\numberline {A.2}{\ignorespaces Men\IeC {\'u} Principal de Tower3D}}{103}{figure.Alph1.2}}
\newlabel{img:menu}{{A.0.2}{103}{Pantalla de Menú}{figure.Alph1.2}{}}
\@writefile{lof}{\contentsline {figure}{\numberline {A.3}{\ignorespaces Pantalla de juego de TOWER3D. El jugador todav\IeC {\'\i }a no ha hecho nada.}}{104}{figure.Alph1.3}}
\newlabel{img:previoJuego}{{A.0.3}{104}{Pantalla Principal de juego}{figure.Alph1.3}{}}
\@writefile{lof}{\contentsline {figure}{\numberline {A.4}{\ignorespaces Ubicaci\IeC {\'o}n V\IeC {\'a}lida, se puede observar el c\IeC {\'\i }rculo verde.}}{104}{figure.Alph1.4}}
\newlabel{img:ubicacionValida}{{A.0.3}{104}{Construcción de una torre}{figure.Alph1.4}{}}
\@writefile{lof}{\contentsline {figure}{\numberline {A.5}{\ignorespaces Ubicaci\IeC {\'o}n Inv\IeC {\'a}lida, se puede observar el c\IeC {\'\i }rculo rojo.}}{105}{figure.Alph1.5}}
\newlabel{img:ubicacionInvalida}{{A.0.3}{105}{Construcción de una torre}{figure.Alph1.5}{}}
\@writefile{lof}{\contentsline {figure}{\numberline {A.6}{\ignorespaces Mensaje advirtiendo al jugador que falta dinero para construir o mejorar una torre.}}{105}{figure.Alph1.6}}
\newlabel{img:mensaje}{{A.0.3}{105}{Construcción de una torre}{figure.Alph1.6}{}}
\@writefile{lof}{\contentsline {figure}{\numberline {A.7}{\ignorespaces Panel de Mejora. El bot\IeC {\'o}n con la flecha hacia arriba permite mejorar la torre.}}{106}{figure.Alph1.7}}
\newlabel{img:botonMejora}{{A.0.3}{106}{Mejora de las torres}{figure.Alph1.7}{}}
\@writefile{lof}{\contentsline {figure}{\numberline {A.8}{\ignorespaces  El jugador se ha quedado sin vidas y ha perdido.}}{106}{figure.Alph1.8}}
\newlabel{img:youLoose}{{A.0.3}{106}{}{figure.Alph1.8}{}}
\@writefile{toc}{\contentsline {chapter}{\numberline {B}Estructura F\IeC {\'\i }sica del proyecto}{107}{appendix.Alph2}}
\@writefile{lof}{\addvspace {10\p@ }}
\@writefile{lot}{\addvspace {10\p@ }}
\acronymused{HUD}
\bibdata{main}
\bibcite{webgl}{1}
\bibcite{nine_steps}{2}
\bibcite{game_design}{3}
\bibcite{blender_bake}{4}
\bibcite{boost}{5}
\bibcite{busqueda_anchura}{6}
\bibcite{gameplay3D}{7}
\bibcite{ogre_egl_bugs}{8}
\bibcite{ogre_tiles}{9}
\bibcite{ogre_android}{10}
\bibcite{libro_blanco}{11}
\bibcite{blender}{12}
\bibcite{licencias_libres}{13}
\@writefile{toc}{\contentsline {chapter}{Bibliograf\'{\i }a}{109}{appendix*.35}}
\bibcite{unreal_engine}{14}
\bibcite{unreal_engine_price}{15}
\bibcite{torchlight}{16}
\bibcite{android_api}{17}
\bibcite{game_engine}{18}
\bibcite{graph_ml}{19}
\bibcite{scrum_videogames}{20}
\bibcite{ogreBegginer}{21}
\bibcite{scrum_trincheras}{22}
\bibcite{sdl}{23}
\bibcite{gimp}{24}
\bibcite{cplus_game}{25}
\bibcite{modelos_negocio}{26}
\bibcite{emacs}{27}
\bibcite{software_libre}{28}
\bibcite{unity}{29}
\bibcite{ar_motor}{30}
\bibcite{prg_grafica}{31}
\bibcite{archlinux}{32}
\bibcite{list_game_engines}{33}
