\select@language {spanish}
\contentsline {figure}{\numberline {1}{\ignorespaces Gimp}}{4}
\contentsline {figure}{\numberline {2}{\ignorespaces Blender\includegraphics [width=12cm]{imagenes/robot}}}{5}
\contentsline {figure}{\numberline {3}{\ignorespaces Emacs}}{7}
\contentsline {figure}{\numberline {4}{\ignorespaces Categor\IeC {\'\i }as de videojuegos}}{8}
\contentsline {figure}{\numberline {5}{\ignorespaces Gr\'afico Flow}}{10}
\contentsline {figure}{\numberline {6}{\ignorespaces BluePrint Editor}}{11}
\contentsline {figure}{\numberline {7}{\ignorespaces Editor Unity}}{12}
