\relax 
\catcode `"\active 
\catcode `<\active 
\catcode `>\active 
\@nameuse{es@quoting}
\select@language{spanish}
\@writefile{toc}{\select@language{spanish}}
\@writefile{lof}{\select@language{spanish}}
\@writefile{lot}{\select@language{spanish}}
\@writefile{toc}{\contentsline {paragraph}{RESUMEN}{1}}
\@writefile{toc}{\contentsline {section}{\numberline {1}INTRODUCCI\'ON}{2}}
\@writefile{toc}{\contentsline {section}{\numberline {2}OBJETIVOS DEL PFC}{3}}
\@writefile{toc}{\contentsline {subsection}{\numberline {2.1}Entorno de trabajo}{3}}
\@writefile{toc}{\contentsline {subsubsection}{\numberline {2.1.1}GIMP}{3}}
\@writefile{lof}{\contentsline {figure}{\numberline {1}{\ignorespaces Gimp}}{4}}
\@writefile{toc}{\contentsline {subsubsection}{\numberline {2.1.2}Blender}{4}}
\@writefile{lof}{\contentsline {figure}{\numberline {2}{\ignorespaces Blender\includegraphics [width=12cm]{imagenes/robot}}}{5}}
\@writefile{toc}{\contentsline {subsubsection}{\numberline {2.1.3}EMACS}{5}}
\@writefile{toc}{\contentsline {subsubsection}{\numberline {2.1.4}GCC}{6}}
\@writefile{toc}{\contentsline {subsection}{\numberline {2.2}Objetivos t\'ecnicos}{6}}
\@writefile{lof}{\contentsline {figure}{\numberline {3}{\ignorespaces Emacs}}{7}}
\@writefile{toc}{\contentsline {subsection}{\numberline {2.3}Objetivos funcionales}{7}}
\@writefile{lof}{\contentsline {figure}{\numberline {4}{\ignorespaces Categor\IeC {\'\i }as de videojuegos}}{8}}
\@writefile{toc}{\contentsline {section}{\numberline {3}ANTECEDENTES}{8}}
\@writefile{toc}{\contentsline {subsection}{\numberline {3.1}La industria del videojuego.}{8}}
\@writefile{toc}{\contentsline {subsection}{\numberline {3.2}Dise\~no de un videojuego.}{8}}
\@writefile{toc}{\contentsline {subsubsection}{\numberline {3.2.1}Las emociones como parte del videojuego.}{8}}
\@writefile{toc}{\contentsline {subsection}{\numberline {3.3}Motores de juego.}{9}}
\@writefile{toc}{\contentsline {subsubsection}{\numberline {3.3.1}Unreal Engine 4.}{9}}
\@writefile{lof}{\contentsline {figure}{\numberline {5}{\ignorespaces Gr\'afico Flow}}{10}}
\@writefile{toc}{\contentsline {subsubsection}{\numberline {3.3.2}Unity}{10}}
\@writefile{lof}{\contentsline {figure}{\numberline {6}{\ignorespaces BluePrint Editor}}{11}}
\@writefile{lof}{\contentsline {figure}{\numberline {7}{\ignorespaces Editor Unity}}{12}}
\@writefile{toc}{\contentsline {section}{\numberline {4}M\'ETODO DE TRABAJO}{12}}
\@writefile{toc}{\contentsline {section}{\numberline {5}ARQUITECTURA}{12}}
\@writefile{toc}{\contentsline {subsection}{\numberline {5.1}Entorno de desarrollo.}{12}}
\@writefile{toc}{\contentsline {subsubsection}{\numberline {5.1.1}Editor}{13}}
\@writefile{toc}{\contentsline {subsubsection}{\numberline {5.1.2}Android NDK y SDK}{13}}
\@writefile{toc}{\contentsline {subsection}{\numberline {5.2}Estructura F\IeC {\'\i }sica.}{13}}
\@writefile{toc}{\contentsline {subsection}{\numberline {5.3}Estructura L\'ogica}{14}}
\@writefile{toc}{\contentsline {subsubsection}{\numberline {5.3.1}Gesti\'on de Enemigos}{14}}
\@writefile{toc}{\contentsline {subsubsection}{\numberline {5.3.2}Gesti\'on de las torres}{16}}
\@writefile{toc}{\contentsline {subsubsection}{\numberline {5.3.3}Gesti\'on del mapa.}{18}}
\@writefile{toc}{\contentsline {subsubsection}{\numberline {5.3.4}Gesti\'on de sistemas de Apoyo o Transversales.}{20}}
\@writefile{toc}{\contentsline {section}{\numberline {6}DECISIONES T\'ECNICAS}{20}}
\@writefile{toc}{\contentsline {subsection}{\numberline {6.1}Dise\~no de mapas.}{20}}
\@writefile{toc}{\contentsline {subsection}{\numberline {6.2}Dibujado del mapa.}{22}}
\@writefile{toc}{\contentsline {subsection}{\numberline {6.3}Gesti\'on de la entrada.}{23}}
\@writefile{toc}{\contentsline {subsection}{\numberline {6.4}Interfaz de usuario.}{23}}
\@writefile{toc}{\contentsline {subsection}{\numberline {6.5}T\'ecnica de Sombreado.}{24}}
\@writefile{toc}{\contentsline {section}{\numberline {7}AN\'ALISIS DE COSTES}{24}}
\@writefile{toc}{\contentsline {subsection}{\numberline {7.1}Investigaci\'on y establecimiento de entorno de desarrollo.}{24}}
\@writefile{toc}{\contentsline {subsection}{\numberline {7.2}Desarrollo del videojuego}{25}}
\@writefile{toc}{\contentsline {section}{\numberline {8}MANUAL DE USUARIO}{26}}
\@writefile{toc}{\contentsline {subsection}{\numberline {8.1}Pantalla de cargando}{26}}
\@writefile{toc}{\contentsline {subsection}{\numberline {8.2}Pantalla de Men\'u}{26}}
\@writefile{toc}{\contentsline {subsection}{\numberline {8.3}Pantalla Principal de juego}{27}}
\@writefile{toc}{\contentsline {paragraph}{Construcci\'on de una torre.}{28}}
\@writefile{toc}{\contentsline {paragraph}{Mejora de las torres.}{29}}
\@writefile{toc}{\contentsline {section}{\numberline {9}CONCLUSIONES Y PROPUESTAS}{30}}
\@writefile{toc}{\contentsline {subsection}{\numberline {9.1}Conclusiones}{30}}
\citation{CB09}
\@writefile{toc}{\contentsline {subsection}{\numberline {9.2}Propuestas de trabajo futuro}{31}}
\citation{RS02}
\bibcite{CB09}{Beyond Game Design : Nine Steps Towards Creating Better Videogames}
\@writefile{toc}{\contentsline {section}{\numberline {10}BIBLIOGRAFIA}{32}}
\bibcite{RS02}{Emacs}
