// Example particle systems

// smoke
particle_system Monocycle/Smoke
{
	material        	Smoke
	particle_width  	0.5
	particle_height 	0.5
	cull_each       	true
	quota           	500
	billboard_type  	point
	sorted				true
    
	// Area emitter
	emitter Point
	{
		position -1 5 0
		angle 35
		emission_rate 10
		time_to_live 0.3
		direction 0 1 0
		velocity_min 1
		velocity_max 2    	
	}
	affector ColourFader
	{
		alpha -0.5

	}

//	affector ColourImage
//	{
//		image smoke.png
//	}

   	affector Rotator
   	{
		rotation_range_start 0
		rotation_range_end 360
		rotation_speed_range_start -60
		rotation_speed_range_end 200
   	}

   	affector Scaler
   	{
       	rate 1
   	}

}
